{
	"links": {
		"next": "https://master.demo.geonode.org/api/v2/layers/?format=json&page=2&page_size=2",
		"previous": null
	},
	"total": 121,
	"page": 1,
	"page_size": 2,
	"datasets": [
		{
			"pk": "184",
			"uuid": "818898b8-5c1a-11eb-b604-0242ac150007",
			"name": "TEMPERATURASMINENERO2030",
			"workspace": "geonode",
			"store": "TEMPERATURASMINENERO2030",
			"subtype": "raster",
			"charset": "UTF-8",
			"is_mosaic": false,
			"has_time": false,
			"has_elevation": false,
			"time_regex": null,
			"elevation_regex": null,
			"use_featureinfo_custom_template": false,
			"featureinfo_custom_template": "",
			"default_style": {
				"pk": 231,
				"name": "TEMPERATURASMINENERO2030",
				"workspace": "geonode",
				"sld_title": null,
				"sld_body": "b'<?xml version=\"1.0\" encoding=\"UTF-8\"?>\\n<StyledLayerDescriptor xmlns=\"http://www.opengis.net/sld\" xmlns:gml=\"http://www.opengis.net/gml\" version=\"1.0.0\" xmlns:sld=\"http://www.opengis.net/sld\" xmlns:ogc=\"http://www.opengis.net/ogc\">\\n  <UserLayer>\\n    <sld:LayerFeatureConstraints>\\n      <sld:FeatureTypeConstraint/>\\n    </sld:LayerFeatureConstraints>\\n    <sld:UserStyle>\\n      <sld:Name>TEMPERATURASMINENERO2030</sld:Name>\\n      <sld:FeatureTypeStyle>\\n        <sld:Rule>\\n          <sld:RasterSymbolizer>\\n            <sld:ChannelSelection>\\n              <sld:GrayChannel>\\n                <sld:SourceChannelName>1</sld:SourceChannelName>\\n              </sld:GrayChannel>\\n            </sld:ChannelSelection>\\n            <sld:ColorMap type=\"intervals\">\\n              <sld:ColorMapEntry color=\"#132e58\" quantity=\"-49\" label=\"&lt;= -4.90\"/>\\n              <sld:ColorMapEntry color=\"#18558b\" quantity=\"-32\" label=\"-4.89 - -3.2\"/>\\n              <sld:ColorMapEntry color=\"#127ebd\" quantity=\"-1\" label=\"-3.19 - -1.00\"/>\\n              <sld:ColorMapEntry color=\"#55c5d3\" quantity=\"5\" label=\"-0.09 - 0.5\"/>\\n              <sld:ColorMapEntry color=\"#aefdf4\" quantity=\"17\" label=\"0.51 - 1.70\"/>\\n              <sld:ColorMapEntry color=\"#c7fd7e\" quantity=\"40\" label=\"1.71 - 4.00\"/>\\n              <sld:ColorMapEntry color=\"#83e611\" quantity=\"50\" label=\"4.01 - 5.00\"/>\\n              <sld:ColorMapEntry color=\"#6baa14\" quantity=\"83\" label=\"5.01 - 8.30\"/>\\n              <sld:ColorMapEntry color=\"#517317\" quantity=\"120\" label=\"8.31 - 12.00\"/>\\n              <sld:ColorMapEntry color=\"#337208\" quantity=\"187\" label=\"12.01 - 18.70\"/>\\n            </sld:ColorMap>\\n          </sld:RasterSymbolizer>\\n        </sld:Rule>\\n      </sld:FeatureTypeStyle>\\n    </sld:UserStyle>\\n  </UserLayer>\\n</StyledLayerDescriptor>\\n'",
				"sld_version": null,
				"sld_url": "http://geoserver:8080/geoserver/rest/workspaces/geonode/styles/TEMPERATURASMINENERO2030.sld"
			},
			"styles": [
				{
					"pk": 231,
					"name": "TEMPERATURASMINENERO2030",
					"workspace": "geonode",
					"sld_title": null,
					"sld_body": "b'<?xml version=\"1.0\" encoding=\"UTF-8\"?>\\n<StyledLayerDescriptor xmlns=\"http://www.opengis.net/sld\" xmlns:gml=\"http://www.opengis.net/gml\" version=\"1.0.0\" xmlns:sld=\"http://www.opengis.net/sld\" xmlns:ogc=\"http://www.opengis.net/ogc\">\\n  <UserLayer>\\n    <sld:LayerFeatureConstraints>\\n      <sld:FeatureTypeConstraint/>\\n    </sld:LayerFeatureConstraints>\\n    <sld:UserStyle>\\n      <sld:Name>TEMPERATURASMINENERO2030</sld:Name>\\n      <sld:FeatureTypeStyle>\\n        <sld:Rule>\\n          <sld:RasterSymbolizer>\\n            <sld:ChannelSelection>\\n              <sld:GrayChannel>\\n                <sld:SourceChannelName>1</sld:SourceChannelName>\\n              </sld:GrayChannel>\\n            </sld:ChannelSelection>\\n            <sld:ColorMap type=\"intervals\">\\n              <sld:ColorMapEntry color=\"#132e58\" quantity=\"-49\" label=\"&lt;= -4.90\"/>\\n              <sld:ColorMapEntry color=\"#18558b\" quantity=\"-32\" label=\"-4.89 - -3.2\"/>\\n              <sld:ColorMapEntry color=\"#127ebd\" quantity=\"-1\" label=\"-3.19 - -1.00\"/>\\n              <sld:ColorMapEntry color=\"#55c5d3\" quantity=\"5\" label=\"-0.09 - 0.5\"/>\\n              <sld:ColorMapEntry color=\"#aefdf4\" quantity=\"17\" label=\"0.51 - 1.70\"/>\\n              <sld:ColorMapEntry color=\"#c7fd7e\" quantity=\"40\" label=\"1.71 - 4.00\"/>\\n              <sld:ColorMapEntry color=\"#83e611\" quantity=\"50\" label=\"4.01 - 5.00\"/>\\n              <sld:ColorMapEntry color=\"#6baa14\" quantity=\"83\" label=\"5.01 - 8.30\"/>\\n              <sld:ColorMapEntry color=\"#517317\" quantity=\"120\" label=\"8.31 - 12.00\"/>\\n              <sld:ColorMapEntry color=\"#337208\" quantity=\"187\" label=\"12.01 - 18.70\"/>\\n            </sld:ColorMap>\\n          </sld:RasterSymbolizer>\\n        </sld:Rule>\\n      </sld:FeatureTypeStyle>\\n    </sld:UserStyle>\\n  </UserLayer>\\n</StyledLayerDescriptor>\\n'",
					"sld_version": null,
					"sld_url": "http://geoserver:8080/geoserver/rest/workspaces/geonode/styles/TEMPERATURASMINENERO2030.sld"
				}
			],
			"attribute_set": [
				{
					"pk": 1365,
					"attribute": "GRAY_INDEX",
					"description": null,
					"attribute_label": null,
					"attribute_type": "raster",
					"visible": true,
					"display_order": 1,
					"featureinfo_type": "type_property",
					"count": 1,
					"min": "NA",
					"max": "NA",
					"average": "NA",
					"median": "NA",
					"stddev": "NA",
					"sum": "NA",
					"unique_values": "NA",
					"last_stats_updated": "2021-01-21T18:57:31.704324Z"
				}
			],
			"resource_type": "layer",
			"polymorphic_ctype_id": "58",
			"owner": {
				"pk": 1030,
				"username": "MarceloRetamalGajardo",
				"first_name": "",
				"last_name": "",
				"avatar": "https://www.gravatar.com/avatar/f5957a6dc8bc9e00f1a6f20de9da21b6/?s=240"
			},
			"poc": {
				"pk": 1030,
				"username": "MarceloRetamalGajardo",
				"first_name": "",
				"last_name": "",
				"avatar": "https://www.gravatar.com/avatar/f5957a6dc8bc9e00f1a6f20de9da21b6/?s=240"
			},
			"metadata_author": {
				"pk": 1030,
				"username": "MarceloRetamalGajardo",
				"first_name": "",
				"last_name": "",
				"avatar": "https://www.gravatar.com/avatar/f5957a6dc8bc9e00f1a6f20de9da21b6/?s=240"
			},
			"title": "TEMPERATURAS MIN ENERO 2030",
			"abstract": "<p>No abstract provided</p>",
			"attribution": null,
			"doi": null,
			"alternate": "geonode:TEMPERATURASMINENERO2030",
			"date": "2021-01-21T18:57:00Z",
			"date_type": "publication",
			"temporal_extent_start": null,
			"temporal_extent_end": null,
			"edition": null,
			"purpose": "",
			"maintenance_frequency": null,
			"constraints_other": "",
			"language": "eng",
			"supplemental_information": "<p>No se provee informaci&oacute;n</p>",
			"data_quality_statement": "",
			"bbox_polygon": {
				"type": "Polygon",
				"coordinates": [
					[
						[-73.8833242, -40.79168],
						[-73.8833242, -39.1250132],
						[-71.474990674, -39.1250132],
						[-71.474990674, -40.79168],
						[-73.8833242, -40.79168]
					]
				]
			},
			"srid": "EPSG:4326",
			"group": null,
			"popular_count": "2",
			"share_count": "0",
			"rating": "0",
			"featured": false,
			"is_published": true,
			"is_approved": true,
			"thumbnail_url": "https://master.demo.geonode.org/static/thumbs/layer-818898b8-5c1a-11eb-b604-0242ac150007-thumb.15fffae196e4.png?v=885131f3",
			"detail_url": "/layers/TEMPERATURASMINENERO2030:geonode:TEMPERATURASMINENERO2030",
			"created": "2021-01-21T18:57:27.717853Z",
			"last_updated": "2021-01-21T19:19:49.765237Z",
			"keywords": [
				{
					"name": "GeoTIFF",
					"slug": "geotiff"
				}, {
					"name": "TEMPERATURASMINENERO2030",
					"slug": "temperaturasminenero2030"
				}, {
					"name": "WCS",
					"slug": "wcs"
				}
			],
			"regions": [
				{
					"code": "GLO",
					"name": "Global"
				}
			],
			"category": null,
			"restriction_code_type": null,
			"license": {
				"identifier": "not_specified"
			},
			"spatial_representation_type": null
		}
	]
}
